module gitlab.com/o5slab/httpecho

go 1.14

require (
	github.com/gin-gonic/gin v1.6.3
	github.com/go-playground/validator/v10 v10.3.0 // indirect
	github.com/golang/protobuf v1.4.2
	github.com/json-iterator/go v1.1.10 // indirect
	github.com/modern-go/concurrent v0.0.0-20180306012644-bacd9c7ef1dd // indirect
	github.com/modern-go/reflect2 v1.0.1 // indirect
	golang.org/x/sys v0.0.0-20200610111108-226ff32320da // indirect
	google.golang.org/protobuf v1.24.0
	gopkg.in/yaml.v2 v2.3.0 // indirect
)
